%YAML 1.1
%TAG !u! tag:unity3d.com,2011:
--- !u!1045 &1
EditorBuildSettings:
  m_ObjectHideFlags: 0
  serializedVersion: 2
  m_Scenes:
  - enabled: 1
    path: Assets/Scenes/Main.unity
    guid: db2146f4a06ea473abef7792f3351d0e
  - enabled: 1
    path: Assets/Scenes/Live.unity
    guid: d375364e71d3d4c4ea714c79dd269e55
  - enabled: 1
    path: Assets/Scenes/Replay.unity
    guid: 27d571ec9a73a456094a709c9d849ded
  - enabled: 1
    path: Assets/Scenes/Test.unity
    guid: 00000000000000000000000000000000
